C:\Users\Pink Light\Desktop\javassem\SpringBootJwtAuthentication\src\main\java\com\grokonez\jwtauthentication\controller\TestRestAPIs.java
C:\Users\Pink Light\Desktop\javassem\SpringBootJwtAuthentication\src\main\java\com\grokonez\jwtauthentication\model\Movie.java
C:\Users\Pink Light\Desktop\javassem\SpringBootJwtAuthentication\src\main\java\com\grokonez\jwtauthentication\message\request\SignUpForm.java
C:\Users\Pink Light\Desktop\javassem\SpringBootJwtAuthentication\src\main\java\com\grokonez\jwtauthentication\repository\UserRepository.java
C:\Users\Pink Light\Desktop\javassem\SpringBootJwtAuthentication\src\main\java\com\grokonez\jwtauthentication\message\request\LoginForm.java
C:\Users\Pink Light\Desktop\javassem\SpringBootJwtAuthentication\src\main\java\com\grokonez\jwtauthentication\security\jwt\JwtProvider.java
C:\Users\Pink Light\Desktop\javassem\SpringBootJwtAuthentication\src\main\java\com\grokonez\jwtauthentication\controller\MovieController.java
C:\Users\Pink Light\Desktop\javassem\SpringBootJwtAuthentication\src\main\java\com\grokonez\jwtauthentication\message\response\ResponseMessage.java
C:\Users\Pink Light\Desktop\javassem\SpringBootJwtAuthentication\src\main\java\com\grokonez\jwtauthentication\model\RoleName.java
C:\Users\Pink Light\Desktop\javassem\SpringBootJwtAuthentication\src\main\java\com\grokonez\jwtauthentication\repository\MovieRepository.java
C:\Users\Pink Light\Desktop\javassem\SpringBootJwtAuthentication\src\main\java\com\grokonez\jwtauthentication\model\ApiResponse.java
C:\Users\Pink Light\Desktop\javassem\SpringBootJwtAuthentication\src\main\java\com\grokonez\jwtauthentication\model\MovieDto.java
C:\Users\Pink Light\Desktop\javassem\SpringBootJwtAuthentication\src\main\java\com\grokonez\jwtauthentication\security\WebSecurityConfig.java
C:\Users\Pink Light\Desktop\javassem\SpringBootJwtAuthentication\src\main\java\com\grokonez\jwtauthentication\security\jwt\JwtAuthTokenFilter.java
C:\Users\Pink Light\Desktop\javassem\SpringBootJwtAuthentication\src\main\java\com\grokonez\jwtauthentication\message\response\JwtResponse.java
C:\Users\Pink Light\Desktop\javassem\SpringBootJwtAuthentication\src\main\java\com\grokonez\jwtauthentication\security\services\UserDetailsServiceImpl.java
C:\Users\Pink Light\Desktop\javassem\SpringBootJwtAuthentication\src\main\java\com\grokonez\jwtauthentication\model\User.java
C:\Users\Pink Light\Desktop\javassem\SpringBootJwtAuthentication\src\main\java\com\grokonez\jwtauthentication\security\services\MovieServiceImpl.java
C:\Users\Pink Light\Desktop\javassem\SpringBootJwtAuthentication\src\main\java\com\grokonez\jwtauthentication\exception\ResourceNotFoundException.java
C:\Users\Pink Light\Desktop\javassem\SpringBootJwtAuthentication\src\main\java\com\grokonez\jwtauthentication\model\Role.java
C:\Users\Pink Light\Desktop\javassem\SpringBootJwtAuthentication\src\main\java\com\grokonez\jwtauthentication\security\services\MovieService.java
C:\Users\Pink Light\Desktop\javassem\SpringBootJwtAuthentication\src\main\java\com\grokonez\jwtauthentication\security\jwt\JwtAuthEntryPoint.java
C:\Users\Pink Light\Desktop\javassem\SpringBootJwtAuthentication\src\main\java\com\grokonez\jwtauthentication\SpringBootJwtAuthenticationApplication.java
C:\Users\Pink Light\Desktop\javassem\SpringBootJwtAuthentication\src\main\java\com\grokonez\jwtauthentication\security\services\UserPrinciple.java
C:\Users\Pink Light\Desktop\javassem\SpringBootJwtAuthentication\src\main\java\com\grokonez\jwtauthentication\controller\AuthRestAPIs.java
C:\Users\Pink Light\Desktop\javassem\SpringBootJwtAuthentication\src\main\java\com\grokonez\jwtauthentication\repository\RoleRepository.java
